{
    "id": 4709749,
    "category": {
        "id": 113,
        "slug": "deportes/juegos-olimpicos",
        "title": "JJOO"
    },
    "slug": "deportes/noticia/4709749/0/calor-extremo-juegos-olimpicos-tokio-2020/",
    "accessType": "abierto",
    "authors": [
        {
            "id": 2079,
            "username": "antonio.garcia",
            "first_name": "Antonio",
            "last_name": "García"
        }
    ],
    "categories": [
        {
            "id": 113,
            "slug": "deportes/juegos-olimpicos",
            "title": "JJOO"
        }
    ],
    "pageTags": [
        {
            "id": 1,
            "slug": "cambio-climatico",
            "title": "Cambio climático",
            "admin_title": "Cambio climático"
        },
        {
            "id": 2,
            "slug": "japon",
            "title": "Japón",
            "admin_title": "Japón"
        },
        {
            "id": 3,
            "slug": "tokio",
            "title": "Tokio",
            "admin_title": "Tokio"
        },
        {
            "id": 4,
            "slug": "juegos-olimpicos-de-tokio",
            "title": "Juegos Olímpicos de Tokio",
            "admin_title": "Juegos Olímpicos de Tokio"
        },
        {
            "id": 5,
            "slug": "calor",
            "title": "Calor",
            "admin_title": "Calor"
        },
        {
            "id": 6,
            "slug": "covid-19",
            "title": "Covid-19",
            "admin_title": "Covid-19"
        }
    ],
    "created_at": "2021-05-26T17:32:32+02:00",
    "updated_at": "2021-05-26T17:32:32+02:00",
    "published_at": "2021-05-26T17:32:32+02:00",
    "title": "El calor extremo será un problema añadido al Covid-19 en los Juegos Olímpicos de Tokio 2020",
    "contributingAuthorSetting": "EP",
    "authors_tags": [
        {
            "id": 8,
            "slug": "sportyou",
            "title": "SportYou",
            "admin_title": "SportYou"
        }
    ],
    "template": "default",
    "publish": true,
    "titles": [
        "El calor extremo será un problema añadido al Covid-19 en los Juegos Olímpicos de Tokio 2020"
    ],
    "epigraph-modules": [
        [
                {
                    "list": true,
                    "text": "El estudio 'Rings of Fire' alerta de condiciones límites derivadas del cambio climático durante los Juegos Olímpcios."
                },
                {
                    "list": true,
                    "text": "Cancelar los Juegos costaría a Japón unos 13.560 millones de euros.",
                    "url": "https://www.20minutos.es/deportes/noticia/4708835/0/cancelacion-juegos-olimpicos-tokio-perdidas-millonarias/"
                },
                {
                    "list": true,
                    "text": "Tokio pide la ayuda del ejército para asegurar suficiente personal médico en los Juegos.",
                    "url": "https://www.20minutos.es/deportes/noticia/4708729/0/tokio-pide-ayuda-ejercito-personal-sanitario-juegos/"
                }
        ]
    ],
    "multimedia": [
        {
                "image_url": "https://imagenes.20minutos.es/files/image_656_370/uploads/imagenes/2021/05/26/tokio-2020-1.jpeg",
                "credits": "EFE",
                "description": "Los Juegos Olímpicos de Tokio 2020 podrían ser los más calurosos de la historia."
        }
    ],
    "paragraphs": [
        "Los deportistas olímpicos de los <b><a href=\"https://www.20minutos.es/deportes/minuteca/juegos-olimpicos-de-tokio/\" title=\"Juegos Olímpicos de Tokio\">Juegos Olímpicos de Tokio 2020</a></b> tendrán que hacer frente a unas <b>condiciones extremas de altas temperaturas y humedad este verano</b>, alentadas por el cambio climático, según el estudio 'Rings of Fire' publicado este miércoles.",
        "El informe, realizado por la British Association for Sustainability in Sport (BASIS), el Priestley International Centre for Climate de la Universidad de Leeds, la Universidad de Portsmouth y con la participación de atletas profesionales, trata de anticipar cómo el calor afectará a las actuaciones de los deportistas.",
        "<b>\"El cambio climático es un olímpico no invitado a los Juegos y tratará batir sus propios récords\"</b>, explica Paloma Trascasa Castro, investigadora del Priestley Centre que ayudó a la elaboración del informe, el cual revela el <b>aumento progresivo y en una media superior al resto del mundo de las temperaturas en Tokio</b>.",
        "La temperatura media anual en la capital japonesa, anfitriona de unos Juegos que se aplazaron el año pasado por la pandemia de coronavirus, ha aumentado 2.86 grados centígrados desde 1990, más de tres veces más rápido que la media mundial.",
        "Además, <b>las temperaturas extremas, superiores a 35ºC, se han convertido en más habituales desde 1990</b>, consecuencias del cambio climático según los científicos, que recuerdan la ola de calor de 2018, calificada de desastre natural, y ahora ponen el aviso sobre la cita olímpica que se celebra del 23 de julio al 8 de agosto.",
        "El estudio sugiere que el <a href=\"https://www.20minutos.es/deportes/minuteca/coi/\" title=\"COI\">Comité Olímpico Internacional</a> (COI) tendrá que integrar cada vez más los datos climáticos a la hora de decidir sedes futuras y con atención al calentamiento global. De hecho, como consecuencia de estas previsiones, <b>ya se han cambiado de sede el maratón y la marcha</b>, y otras pruebas tendrán que estar pendientes de no superar el umbral de riesgo.",
        "<b>\"Sumado a la firma subyacente del cambio climático, el efecto de 'isla de calor urbano' aumenta las posibilidades de que los Juegos Olímpicos de Tokio 2020 se conviertan en los Juegos más calurosos jamás registrados\"</b>, añade Paloma. Por ello, los atletas pueden estar ante un desafío que sin duda afectará a su rendimiento.</p>",
        "De hecho, este nuevo estudio advierte de que el calor extremo pondrá en riesgo a los atletas y espectadores y continuará haciéndolo a la luz del aumento de las temperaturas globales, si no se consideran medidas de mitigación."
    ],
    "related_pages": [
       {
                "url": "https://www.20minutos.es/deportes/noticia/4708835/0/cancelacion-juegos-olimpicos-tokio-perdidas-millonarias/",
                "image_url": "https://imagenes.20minutos.es/files/image_656_370/uploads/imagenes/2021/05/26/tokio-2020.jpeg",
                "description": "Cancelar los Juegos costaría a Japón unos 13.560 millones de euros"
        },
        {
                "url": "https://www.20minutos.es/deportes/noticia/4708729/0/tokio-pide-ayuda-ejercito-personal-sanitario-juegos/",
                "image_url": "https://imagenes.20minutos.es/files/image_656_370/files/fp/uploads/imagenes/2021/04/23/tokio-2020.r_d.3583-1035.jpeg",
                "description": "Tokio pide la ayuda del ejército para asegurar suficiente personal médico en los Juegos"
        } 
    ],
    "ads": [
        {
                "adUnitId": "7567567",
                "adSizes": "LARGE_BANNER",
                "customTargeting": [
                    {
                        "key": "age",
                        "value": "20"
                    }
                ]    
        },
        {
                "adUnitId": "123323",
                "adSizes": "BANNER",
                "customTargeting": [
                    {
                        "key": "age",
                        "value": "20"
                    }
                ]
        },
        {
                "adUnitId": "645643",
                "adSizes": "LARGE_BANNER",
                "customTargeting": [
                    {
                        "key": "city",
                        "value": "Zaragoza"
                    }
                ]     
            }
    ],
    "prometeo": [
        "id_widget_prometeo"
    ],
    "cintillos": [],
    "base-lists": [],
    "composite_captioned_inline_image": [],
    "layout": [
        {
            "type": "title",
            "position": 0
        },
        {
            "type": "epigraph-module",
            "position": 0
        },
        {
            "type": "multimedia",
            "position": 0
        },
        {
            "type": "paragraph",
            "position": 0
        },
        {
            "type": "related_page",
            "position": 0
        },
        {
            "type": "paragraph",
            "position": 1
        },
        {
            "type": "ad",
            "position": 0
        },
        {
            "type": "prometeo",
            "position": 0
        },
        {
            "type": "paragraph",
            "position": 2
        },
        {
            "type": "ad",
            "position": 1
        },
        {
            "type": "paragraph",
            "position": 3
        },
        {
            "type": "ad",
            "position": 2
        },
        {
            "type": "paragraph",
            "position": 4
        },
        {
            "type": "related_page",
            "position": 1
        },
        {
            "type": "paragraph",
            "position": 5
        },
        {
            "type": "paragraph",
            "position": 6
        },
        {
            "type": "paragraph",
            "position": 7
        }
    ],
    "url": "https://www.20minutos.es/deportes/noticia/4709749/0/calor-extremo-juegos-olimpicos-tokio-2020/",
    "seo": {
        "title": "El calor extremo será un problema añadido al Covid-19 en los Juegos Olímpicos de Tokio 2020",
        "description": "El estudio 'Rings of Fire' alerta de condiciones límites derivadas del cambio climático durante los Juegos Olímpcios",
        "socialTitle": "",
        "canonical": "",
        "semanticTag": "",
        "semanticCategory": "",
        "keywords": "Deportes,JJOO,Juegos Olímpicos de Tokio,Tokio,Calor,Covid-19,Cambio climático,Japón"
    }
}
